6.1

3.
取余运算符为“%”。但在以前，CPU采用如下方法计算余数（注意，该方法只对2的N次方数系有效）：
X & (2^N - 1)

https://www.jianshu.com/p/0711e9eb8cef
4.	
	ADD R2, R0, 0;

	NOT R4, R1
	ADD R4, R4, 1;
	ADD R5, R2, R4;
loop:	BRp endloop;

	LDR R3,R2, 0;

	ADD R5, R3, 0;
	ADD R5, R5, R3;
	ADD R5, R5, R3;
	ADD R5, R5, R3;
	ADD R5, R5, R3;
	ADD R5, R5, R3;
	ADD R3, R5, 0;
	
	AND R3, R3, x000F;
	STR R2, R3, 0;
	
	ADD R2, R2, 1;
	
	ADD R5, R2, R4;
	BR loop
endloop:


exo2.
	.ORIG x3000;
v1:	.FILL #3;
v2:	.FILL #1;
min:	.FILL #0;
	LD R0, v1;
	LD R1, v2;
	NOT R2, R0;
	ADD R2, R2, 1;
	ADD R2, R1, R2;
	BRp r0;
	BRn r1;
r0:	ST R0, min;
r1: 	ST R1, min;
	.END;
	

6.2


